{
  "lerna": "2.8.0",
  "packages": [
    "projects/libraries/core-base",
    "projects/libraries/core-legacy",
    "projects/libraries/core-test-framework",
    "projects/libraries/core",
    "projects/libraries/sax-js",
    "projects/libraries/vm-browserify",
    "projects/libraries/scxml",
    "projects/libraries/sourcemap-plugin",
    "projects/libraries/schviz",
    "projects/libraries/schviz/test-integration",
    "projects/libraries/console-component",
    "projects/libraries/scxml-test-framework",
    "projects/libraries/eslint",
    "projects/libraries/jsondiffpatch",
    "projects/libraries/react-codemirror",
    "projects/libraries/react-collapsible",
    "projects/libraries/xmllint",
    "projects/libraries/monitor-middleware",
    "projects/libraries/dashboard",
    "projects/devtools/debug",
    "projects/devtools/scharpie",
    "projects/devtools/eslint-plugin",
    "projects/devtools/cli",
    "projects/devtools/vscode-preview",
    "projects/devtools/redux-devtools-scion-monitor",
    "projects/examples/sciblog",
    "projects/examples/botbuilder/common/scxml",
    "projects/examples/botbuilder/common/server",
    "projects/examples/botbuilder/examples/basics-firstRun",
    "projects/examples/botbuilder/examples/basics-menus",
    "projects/examples/botbuilder/examples/basics-multiTurn",
    "projects/examples/botbuilder/examples/hello-chatConnector",
    "projects/examples/universal-morse-input-output",
    "projects/examples/vi",
    "projects/examples/react-redux/drag-and-drop-redux",
    "projects/examples/react-redux/drag-and-drop-redux-with-devtools",
    "projects/examples/test-scharpie"
  ],
  "version": "independent"
}
